13 Bipartite network with R | R for Newspaper Data
…
colnames(points)[2] = 'place'

points$place = tolower(points$place)

points = points %>% mutate(point = str_replace(point,'\\(','')) %>% separate(col = point, into = c('lat','lng'), sep = ',')

## Warning: Expected 2 pieces. Additional pieces discarded in 259 rows [1, 2, 3, 4,
## 5, 6, 7, 8, 9, 10, 11, 12, 13, 14, 15, 16, 17, 18, 19, 20, ...].

paragraphs_foreign %>% group_by(place, type) %>% tally() %>% left_join(points) 

## Joining, by = "place"

## # A tibble: 56 x 8
## # Groups:   place [40]
##    place   type       n    X1 amount location            lat        lng         
##    <chr>   <chr>  <int> <dbl>  <dbl> <chr>               <chr>      <chr>       
##  1 alsatia inner      1    71      2 London, England, U… 51.513000… " -0.107000…
##  2 amster… header     2    27      3 Amsterdam, North H… 52.334800… " 4.8705301…
##  3 antwerp header     2   247      1 Antwerp, Belgium    51.216999… " 4.4000000…
##  4 brusse… header     1    32      3 Brussels Region, B… 50.836044… " 4.3705911…
##  5 brusse… inner      2    32      3 Brussels Region, B… 50.836044… " 4.3705911…
##  6 caglia… inner      1   251      1 Cagliari, Sard., I… 39.214538… " 9.1104898…
##  7 chester header     1    53      2 Chester, England, … 53.188129… " -2.894350…
##  8 cowes   inner      1    98      1 Cowes, England, Un… 50.758411… " -1.297870…
##  9 dalkei… header     2     5      5 Dalkeith, Scotland… 55.892959… " -3.068870…
## 10 dalkei… inner      2     5      5 Dalkeith, Scotland… 55.892959… " -3.068870…
## # … with 46 more rows
…
