13 Detecting text reuse in newspaper articles. | Demystifying Newspaper Data with R (and a tiny bit of Python)
…
Next, use lsh_candidates() to compare each bucket, and generate a list of candidates.

candidates <- lsh_candidates(buckets)

Next we go back to the full corpus, and calculate the similarity score for these pairs, using lsh_compare(). The first argument is the candidates, the second is the full corpus, the third is the method (other similarity functions could be used).

jacsimilarity_both = lsh_compare(candidates, 
                                 reusecorpus, 
                                 jaccard_similarity, 
                                 progress = FALSE) %>% 
  arrange(desc(score))

jacsimilarity_both

## # A tibble: 56 x 3
##    a           b           score
##    <chr>       <chr>       <dbl>
##  1 article_017 article_342     1
##  2 article_019 article_043     1
##  3 article_019 article_068     1
##  4 article_019 article_395     1
##  5 article_019 article_400     1
##  6 article_019 article_461     1
##  7 article_019 article_463     1
##  8 article_019 article_513     1
##  9 article_019 article_603     1
## 10 article_043 article_068     1
## # … with 46 more rows

It returns a similarity score for each pair: The first pair have a 25% overlap, and the second a much smaller number.

The last thing is to join up the article codes to the full text dataset, and actually see what pairs have been detected. This is done using two left_join() commands, one for a and one for b. Also select just the relevant columns.

matchedtexts = jacsimilarity_both %>% 
  left_join(news_sample_dataframe, by = c('a' = 'article_code')) %>% 
  left_join(news_sample_dataframe, by = c('b' = 'article_code'))%>% select(a,b,score, text.x, text.y)

matchedtexts

## # A tibble: 56 x 5
##    a           b           score text.x                  text.y                 
##    <chr>       <chr>       <dbl> <chr>                   <chr>                  
##  1 article_017 article_342     1 TIIE  NATIONAL  REGIST… TIIE  NATIONAL  REGIST…
##  2 article_019 article_043     1 THE  NATIONAL  REGISTE… THE  NATIONAL  REGISTE…
##  3 article_019 article_068     1 THE  NATIONAL  REGISTE… THE  NATIONAL  REGISTE…
##  4 article_019 article_395     1 THE  NATIONAL  REGISTE… THE  NATIONAL  REGISTE…
##  5 article_019 article_400     1 THE  NATIONAL  REGISTE… THE  NATIONAL  REGISTE…
##  6 article_019 article_461     1 THE  NATIONAL  REGISTE… THE  NATIONAL  REGISTE…
##  7 article_019 article_463     1 THE  NATIONAL  REGISTE… THE  NATIONAL  REGISTE…
##  8 article_019 article_513     1 THE  NATIONAL  REGISTE… THE  NATIONAL  REGISTE…
##  9 article_019 article_603     1 THE  NATIONAL  REGISTE… THE  NATIONAL  REGISTE…
## 10 article_043 article_068     1 THE  NATIONAL  REGISTE… THE  NATIONAL  REGISTE…
## # … with 46 more rows
…
