13 Geocode and map newspaper titles | R for Newspaper Data
…
title_list = read_csv('data/BritishAndIrishNewspapersTitleList_20191118.csv')

We can quite easily make a new data frame, which will just include each location and the total number of instances in the dataset.

location_counts = title_list %>% 
  group_by(country_of_publication, general_area_of_coverage, coverage_city) %>% 
  tally()

Arranging these in descending order of their count shows how many of each we have:

location_counts %>% 
  arrange(desc(n))

## # A tibble: 2,189 x 4
## # Groups:   country_of_publication, general_area_of_coverage [531]
##    country_of_publication general_area_of_coverage  coverage_city     n
##    <chr>                  <chr>                     <chr>         <int>
##  1 England                London                    London         5781
##  2 Ireland                Dublin (Ireland : County) Dublin          415
##  3 Scotland               Strathclyde               Glasgow         309
##  4 England                Greater Manchester        Manchester      265
##  5 England                West Midlands             Birmingham      260
##  6 England                Merseyside                Liverpool       220
##  7 England                Avon                      Bristol         175
##  8 Scotland               Lothian                   Edinburgh       162
##  9 England                South Yorkshire           Sheffield       133
## 10 England                Nottinghamshire           Nottingham      127
## # … with 2,179 more rows
…
anti_join(title_list %>% 
            filter(country_of_publication == 'England') %>% 
            group_by(general_area_of_coverage) %>% 
            tally(),pc_tidy %>% 
            group_by(id) %>% 
            tally() %>% 
            select(id), by = c('general_area_of_coverage' = 'id')) %>% 
  arrange(desc(n))

## # A tibble: 274 x 2
##    general_area_of_coverage     n
##    <chr>                    <int>
##  1 London                    5866
##  2 <NA>                       379
##  3 Humberside                 322
##  4 Avon                       321
##  5 Hereford & Worcester       225
##  6 Cleveland                  122
##  7 Jersey                      33
##  8 Isle of Man                 31
##  9 Guernsey                    29
## 10 Great Britain                7
## # … with 264 more rows
…
