11 Sentiment analysis | Demystifying Newspaper Data with R (and a tiny bit of Python)
…
(https://saifmohammad.com/WebPages/NRC-Emotion-Lexicon.htm)

The NRC dataset is a bit different to the other ones. This time, there’s a list of words, and an emotion associated with that word. A word can have multiple entries, with different emotions attached to them.

11.3 Load the tokenised news sample

load('tokenised_news_sample')

This has two colums, ‘word’ and ‘value’. inner_join() will allow you to merge this with the tokenised dataframe.

tokenised_news_sample %>% inner_join(afinnsentiments)

## Joining, by = "word"

## # A tibble: 15,712 x 8
##    article_code art   title   year  date  full_date  word          value
##           <int> <chr> <chr>   <chr> <chr> <date>     <chr>         <dbl>
##  1            1 0001  0002644 1809  0101  1809-01-01 grateful          3
##  2            1 0001  0002644 1809  0101  1809-01-01 encouragement     2
##  3            1 0001  0002644 1809  0101  1809-01-01 encouragement     2
##  4            1 0001  0002644 1809  0101  1809-01-01 promised          1
##  5            1 0001  0002644 1809  0101  1809-01-01 increase          1
##  6            1 0001  0002644 1809  0101  1809-01-01 negative         -2
##  7            1 0001  0002644 1809  0101  1809-01-01 worth             2
##  8            1 0001  0002644 1809  0101  1809-01-01 gift              2
##  9            1 0001  0002644 1809  0101  1809-01-01 inconvenience    -2
## 10            1 0001  0002644 1809  0101  1809-01-01 determined        2
## # … with 15,702 more rows
…
I’m also using add_tally() to filter out only articles which contain at least 20 of these words from the lexicon, because I think it will make the score more meaningful.

Let’s look at the most ‘positive’ article

tokenised_news_sample %>% 
  inner_join(afinnsentiments) %>% 
  group_by(article_code) %>% 
  add_tally() %>% 
  filter(n>20) %>% 
  tally(mean(value)) %>% 
  arrange(desc(n))

## Joining, by = "word"

## # A tibble: 256 x 2
##    article_code     n
##           <int> <dbl>
##  1          262 1.39 
##  2          111 1.17 
##  3           16 1.11 
##  4           86 1.11 
##  5           85 1.06 
##  6          531 1.04 
##  7           52 0.971
##  8          225 0.92 
##  9          563 0.877
## 10          301 0.868
## # … with 246 more rows
…
