10 Tf_idf: | Demystifying Newspaper Data with R (and a tiny bit of Python)
…
load('tokenised_news_sample')

issue_words = tokenised_news_sample %>% 
  mutate(issue_code = paste0(title, full_date)) %>%
  group_by(issue_code, word) %>%
  tally() %>% 
  arrange(desc(n))

Next use bind_tf_idf() to calculate the measurement for each word in the dataframe.

issue_words %>% bind_tf_idf(word, issue_code, n)

## # A tibble: 97,885 x 6
## # Groups:   issue_code [17]
##    issue_code        word         n      tf    idf   tf_idf
##    <chr>             <chr>    <int>   <dbl>  <dbl>    <dbl>
##  1 00026441809-03-19 duke       129 0.00867 0      0       
##  2 00026441809-01-22 majesty    107 0.0102  0      0       
##  3 00026441809-02-12 clarke     103 0.00943 0.0606 0.000572
##  4 00026441809-03-12 clarke     100 0.00743 0.0606 0.000450
##  5 00026441809-03-19 evidence   100 0.00672 0      0       
##  6 00026441809-03-19 house       98 0.00658 0      0       
##  7 00026441809-02-19 duke        92 0.00881 0      0       
##  8 00026441809-02-19 clarke      88 0.00843 0.0606 0.000511
##  9 00026441809-02-05 clarke      83 0.00732 0.0606 0.000444
## 10 00026441809-03-19 clarke      80 0.00538 0.0606 0.000326
## # … with 97,875 more rows

Now we can sort it in descending order of the issue code, to find the most ‘unusual’ words:

issue_words %>% 
  bind_tf_idf(word, issue_code, n) %>% 
  arrange(desc(tf_idf))

## # A tibble: 97,885 x 6
## # Groups:   issue_code [17]
##    issue_code        word          n       tf   idf  tf_idf
##    <chr>             <chr>     <int>    <dbl> <dbl>   <dbl>
##  1 00026441809-01-22 petticoat    14 0.00133  2.83  0.00378
##  2 00026441809-02-12 deanery      11 0.00101  2.83  0.00285
##  3 00026441809-02-19 dowler       17 0.00163  1.73  0.00282
##  4 00026441809-04-09 prayer       21 0.00191  1.45  0.00277
##  5 00026441809-02-19 shawe        10 0.000958 2.83  0.00271
##  6 00026441809-02-19 kennett      12 0.00115  2.14  0.00246
##  7 00026441809-01-15 yates        12 0.00114  2.14  0.00244
##  8 00026441809-02-05 adam         31 0.00273  0.887 0.00243
##  9 00026441809-01-01 jan          44 0.00454  0.531 0.00241
## 10 00026441809-01-08 hodgson      15 0.00139  1.73  0.00240
## # … with 97,875 more rows
…
